Id,Defendent,Death
95,White,No
83,White,No
39,White,No
313,Black,No
211,Black,No
91,White,No
106,White,No
230,Black,No
315,Black,No
221,Black,No
250,Black,No
25,White,No
210,Black,No
104,White,No
17,White,Yes
46,White,No
231,Black,No
29,White,No
172,Black,No
133,White,No
16,White,Yes
225,Black,Yes
281,Black,No
278,Black,No
50,White,No
51,White,No
99,White,No
236,Black,No
150,White,No
180,Black,No
136,White,No
168,Black,Yes
273,Black,No
178,Black,No
246,Black,No
272,Black,No
200,Black,No
12,White,Yes
169,Black,Yes
176,Black,No
161,Black,Yes
264,Black,No
162,Black,Yes
286,Black,No
123,White,No
188,Black,No
255,Black,No
139,White,No
112,White,No
303,Black,No
258,Black,No
181,Black,No
318,Black,No
144,White,No
186,Black,No
190,Black,No
78,White,No
30,White,No
198,Black,No
298,Black,No
0,White,Yes
87,White,No
118,White,No
238,Black,No
73,White,No
44,White,No
283,Black,No
270,Black,No
292,Black,No
158,White,No
35,White,No
294,Black,No
151,White,No
195,Black,No
295,Black,No
2,White,Yes
121,White,No
199,Black,No
111,White,No
4,White,Yes
252,Black,No
110,White,No
322,Black,No
300,Black,No
45,White,No
266,Black,No
187,Black,No
249,Black,No
248,Black,No
302,Black,No
182,Black,No
269,Black,No
64,White,No
207,Black,No
103,White,No
274,Black,No
324,Black,No
107,White,No
71,White,No
76,White,No
285,Black,No
251,Black,No
21,White,No
31,White,No
259,Black,No
94,White,No
157,White,No
197,Black,No
163,Black,Yes
98,White,No
316,Black,No
234,Black,No
240,Black,No
218,Black,No
52,White,No
319,Black,No
202,Black,No
312,Black,No
81,White,No
18,White,Yes
137,White,No
63,White,No
113,White,No
160,Black,Yes
317,Black,No
80,White,No
37,White,No
257,Black,No
65,White,No
120,White,No
119,White,No
69,White,No
265,Black,No
242,Black,No
77,White,No
15,White,Yes
293,Black,No
142,White,No
175,Black,No
125,White,No
145,White,No
108,White,No
148,White,No
13,White,Yes
134,White,No
212,Black,No
289,Black,No
79,White,No
260,Black,No
154,White,No
85,White,No
36,White,No
149,White,No
305,Black,No
276,Black,No
153,White,No
241,Black,No
159,White,No
131,White,No
1,White,Yes
74,White,No
84,White,No
201,Black,No
214,Black,No
223,Black,Yes
310,Black,No
291,Black,No
109,White,No
34,White,No
224,Black,Yes
325,Black,No
143,White,No
288,Black,No
141,White,No
152,White,No
10,White,Yes
127,White,No
237,Black,No
122,White,No
5,White,Yes
86,White,No
7,White,Yes
41,White,No
38,White,No
126,White,No
42,White,No
209,Black,No
57,White,No
304,Black,No
92,White,No
167,Black,Yes
135,White,No
191,Black,No
275,Black,No
164,Black,Yes
222,Black,No
307,Black,No
70,White,No
3,White,Yes
68,White,No
40,White,No
62,White,No
49,White,No
102,White,No
235,Black,No
105,White,No
253,Black,No
61,White,No
27,White,No
155,White,No
88,White,No
11,White,Yes
173,Black,No
279,Black,No
301,Black,No
56,White,No
114,White,No
216,Black,No
287,Black,No
90,White,No
194,Black,No
189,Black,No
116,White,No
8,White,Yes
193,Black,No
245,Black,No
97,White,No
156,White,No
256,Black,No
128,White,No
297,Black,No
48,White,No
28,White,No
263,Black,No
24,White,No
290,Black,No
277,Black,No
215,Black,No
59,White,No
243,Black,No
311,Black,No
262,Black,No
129,White,No
54,White,No
204,Black,No
32,White,No
117,White,No
60,White,No
89,White,No
132,White,No
184,Black,No
320,Black,No
314,Black,No
308,Black,No
229,Black,No
20,White,No
309,Black,No
124,White,No
220,Black,No
271,Black,No
165,Black,Yes
22,White,No
228,Black,Yes
226,Black,Yes
185,Black,No
217,Black,No
296,Black,No
147,White,No
96,White,No
205,Black,No
233,Black,No
268,Black,No
166,Black,Yes
284,Black,No
299,Black,No
6,White,Yes
9,White,Yes
206,Black,No
179,Black,No
177,Black,No
43,White,No
140,White,No
58,White,No
130,White,No
192,Black,No
100,White,No
282,Black,No
183,Black,No
146,White,No
23,White,No
14,White,Yes
93,White,No
82,White,No
203,Black,No
19,White,No
33,White,No
47,White,No
306,Black,No
101,White,No
239,Black,No
174,Black,No
66,White,No
247,Black,No
254,Black,No
280,Black,No
53,White,No
267,Black,No
26,White,No
323,Black,No
261,Black,No
196,Black,No
244,Black,No
213,Black,No
138,White,No
227,Black,Yes
219,Black,No
75,White,No
232,Black,No
208,Black,No
115,White,No
72,White,No
321,Black,No
55,White,No
170,Black,Yes
171,Black,No
67,White,No
